Name,Value
varCount,4
settingFileVersion,0.2
beaconCount,10
zoneCount,10
BNS0,24DDF4118CF1440C8004
BNS1,24DDF4118CF1440C8005
BNS2,24DDF4118CF1440C8006
BNS3,24DDF4118CF1440C8007
BNS4,24DDF4118CF1440C8008
BNS5,24DDF4118CF1440C8009
BNS6,24DDF4118CF1440C8010
BNS7,24DDF4118CF1440C8011
BNS8,24DDF4118CF1440C8012
BNS9,24DDF4118CF1440C8013
BZID0,0
BZID1,1
BZID2,2
BZID3,3
BZID4,4
BZID5,5
BZID6,6
BZID7,7
BZID8,8
BZID9,9
ZD0,320
ZD1,315
ZD2,340
ZD3,280
ZD4,260
ZD5,135
ZD6,240
ZD7,120
ZD8,210
ZD9,120
ZF0,1|2
ZF1,3|4
ZF2,5|6
ZF3,7|8
ZF4,9|10
ZF5,11|12
ZF6,13|14
ZF7,15
ZF8,16
ZF9,17
ZL0,2
ZL1,2
ZL2,3
ZL3,3
ZL4,4
ZL5,4
ZL6,4
ZL7,5
ZL8,5
ZL9,5